<svg xmlns='http://www.w3.org/2000/svg' viewBox='0 0 1600 300'>
    <rect fill='#FFFFFF' width='1600' height='300'/>
    <g fill-opacity='0.82'>
        <polygon fill='#eecccc' points='1600 20 0 400 0 350 1600 1600'/>
        <polygon fill='#dd9999' points='1600 40 0 560 0 450 1600 1600'/>
        <polygon fill='#cc6666' points='1600 60 0 660 0 550 1600 1600'/>
        <polygon fill='#bb3333' points='1600 80 0 760 0 650 1600 1600'/>
    </g>
</svg>
